<svg xmlns="http://www.w3.org/2000/svg" width="24" height="24" viewBox="0 0 24 24">
    <defs>
        <style>
            .cls-6{fill:#ffb600}
        </style>
    </defs>
    <g id="팔로우" style="isolation:isolate">
        <g id="그룹_1193" transform="translate(-168 -268)"/>
        <g id="패스_1314" fill="#ffd400" stroke="none" stroke-linecap="round" stroke-linejoin="round">
            <path d="M184.752 289.5c-.281 0-.563-.071-.815-.206l-3.64-2.696-.297-.22-.298.22-3.639 2.696c-.253.135-.534.206-.815.206-.512 0-.997-.227-1.332-.623-.327-.386-.47-.897-.391-1.402l.963-4.367.06-.27-.197-.194-3.357-3.303c-.457-.473-.61-1.154-.403-1.78.162-.483.537-1.061 1.409-1.061h4.333l.128-.307 1.965-4.694c.293-.616.895-.999 1.574-.999.68 0 1.281.383 1.574 1l1.965 4.693.128.307h4.293c.727.121 1.267.517 1.449 1.062.208.625.054 1.306-.403 1.779l-3.357 3.303-.197.194.06.27.964 4.367c.078.505-.065 1.016-.392 1.402-.335.396-.82.623-1.332.623z" transform="translate(-168 -268)"/>
            <path fill="#381919" d="M180 271c-.488 0-.904.263-1.118.704l-1.96 4.682c-.155.372-.519.614-.922.614h-4c-.298 0-.72.075-.934.72-.149.446-.04.931.284 1.27l3.351 3.297c.246.242.35.592.276.928l-.96 4.351c-.052.357.05.716.28.988.24.283.587.446.951.446.188 0 .377-.046.55-.132l3.607-2.672c.177-.13.386-.196.595-.196.21 0 .418.065.595.196l3.608 2.672c.172.087.36.132.549.132.364 0 .71-.163.95-.446.23-.272.333-.63.282-.988l-.96-4.35c-.075-.337.03-.687.275-.929l3.351-3.298c.324-.338.433-.823.284-1.269-.138-.416-.605-.642-1.018-.72H184c-.403 0-.767-.242-.922-.614l-1.96-4.682c-.214-.441-.63-.704-1.118-.704m0-1c.879 0 1.657.497 2.031 1.296L184 276h4c.835.128 1.615.6 1.883 1.404.268.805.068 1.682-.522 2.289L186 283l.967 4.382c.106.654-.076 1.316-.501 1.818-.43.508-1.055.8-1.714.8-.375 0-.751-.098-1.085-.284L180 287l-3.667 2.716c-.335.186-.71.284-1.085.284-.659 0-1.284-.292-1.714-.8-.425-.502-.607-1.164-.501-1.818L174 283l-3.361-3.307c-.59-.607-.79-1.484-.522-2.289C170.385 276.6 171 276 172 276h4l1.969-4.704c.374-.799 1.152-1.296 2.031-1.296z" transform="translate(-168 -268)"/>
        </g>
        <g id="그룹_1194" transform="translate(-168 -268)">
            <path id="패스_1315" d="M172.363 278.965a1.253 1.253 0 0 1-.29-1.276.9.9 0 0 1 .934-.72h-1a.9.9 0 0 0-.934.72 1.269 1.269 0 0 0-.061.324 2.2 2.2 0 0 0 .033.372 1.255 1.255 0 0 0 .318.58l3.345 3.291a1 1 0 0 1 .3.709L175 283a.955.955 0 0 1-.017.184l-.951 4.311a2.422 2.422 0 0 0-.017.318 1.251 1.251 0 0 0 1.24 1.156 1.226 1.226 0 0 0 .494-.112 1.249 1.249 0 0 1-.726-1.322l.96-4.351a1 1 0 0 0-.275-.928z" class="cls-6"/>
            <path id="패스_1316" d="M180 271a1.216 1.216 0 0 0-1.125.719l-1.953 4.667A1 1 0 0 1 176 277h1a1 1 0 0 0 .922-.614l1.953-4.667a1.219 1.219 0 0 1 .627-.6A1.247 1.247 0 0 0 180 271z" class="cls-6"/>
        </g>
        <path id="선_7" fill="none" stroke="#fff" stroke-linecap="round" stroke-miterlimit="10" d="M0 0L2 5" transform="translate(12 4)"/>
    </g>
</svg>
