<svg xmlns="http://www.w3.org/2000/svg" width="24" height="24" viewBox="0 0 24 24">
    <defs>
        <style>
            .cls-4{fill:#ffd400;stroke:#381919;stroke-linecap:round;stroke-linejoin:round}.cls-8{stroke:none}.cls-9{fill:none}
        </style>
    </defs>
    <g id="골든벨" style="isolation:isolate" transform="translate(-48 -268)">
        <g id="그룹_1176">
            <g id="타원_80" class="cls-4" transform="translate(59 271)">
                <circle cx="1" cy="1" r="1" class="cls-8"/>
                <circle cx="1" cy="1" r="1.5" class="cls-9"/>
            </g>
            <path id="패스_1305" fill="#381919" d="M62 288a2 2 0 0 1-4 0z"/>
            <g id="사각형_774" class="cls-4" transform="translate(53 284)">
                <rect width="14" height="2" class="cls-8" rx="1"/>
                <rect width="15" height="3" x="-.5" y="-.5" class="cls-9" rx="1.5"/>
            </g>
            <g id="사각형_775" class="cls-4">
                <path d="M5 0a5 5 0 0 1 5 5v5H0V5a5 5 0 0 1 5-5z" class="cls-8" transform="translate(55 273)"/>
                <path d="M5-.5A5.5 5.5 0 0 1 10.5 5v5a.5.5 0 0 1-.5.5H0a.5.5 0 0 1-.5-.5V5A5.5 5.5 0 0 1 5-.5z" class="cls-9" transform="translate(55 273)"/>
            </g>
            <path id="패스_1306" fill="#fa0" d="M60.5 273.05c-.167-.016-.329-.05-.5-.05a5 5 0 0 0-5 5v5h1v-5a4.984 4.984 0 0 1 4.5-4.95z"/>
        </g>
        <path id="패스_1307" fill="#fff" d="M63.5 279a.5.5 0 0 1-.5-.5 3.412 3.412 0 0 0-3.5-3.5.5.5 0 0 1 0-1 4.339 4.339 0 0 1 4.5 4.5.5.5 0 0 1-.5.5z"/>
    </g>
</svg>
