<svg xmlns="http://www.w3.org/2000/svg" width="24" height="24" viewBox="0 0 24 24">
    <defs>
        <style>
            .cls-5{fill:#ffd400;stroke:#381919;stroke-linecap:round;stroke-linejoin:round}.cls-8{fill:#381919}.cls-9{stroke:none}.cls-10{fill:none}
        </style>
    </defs>
    <g id="공지사항" style="isolation:isolate">
        <g id="그룹_1133" transform="translate(-647.91 -224)"/>
        <g id="사각형_751" class="cls-5" transform="translate(2 2)">
            <rect width="18" height="20" class="cls-9" rx="2"/>
            <rect width="17" height="19" x=".5" y=".5" class="cls-10" rx="1.5"/>
        </g>
        <path id="패스_1293" fill="#fff" d="M663.91 228h-1.5a.5.5 0 0 0 0 1h1.5a1 1 0 0 1 1 1v1.5a.5.5 0 0 0 1 0V230a2.006 2.006 0 0 0-2-2z" transform="translate(-647.91 -224)"/>
        <g id="그룹_1134" transform="translate(-647.91 -224)">
            <path id="패스_1294" fill="#ffb600" d="M651.91 228a1.976 1.976 0 0 1 .28-1h-.28a1 1 0 0 0-1 1v16a1 1 0 0 0 1 1h.28a1.976 1.976 0 0 1-.28-1z"/>
        </g>
        <g id="사각형_752" class="cls-5">
            <path d="M0 0h17a4 4 0 0 1-4 4H0V0z" class="cls-9" transform="translate(5 18)"/>
            <path d="M.875.5h15.25a.375.375 0 0 1 .375.375A2.625 2.625 0 0 1 13.875 3.5h-13A.375.375 0 0 1 .5 3.125V.875A.375.375 0 0 1 .875.5z" class="cls-10" transform="translate(5 18)"/>
        </g>
        <g id="그룹_1138" transform="translate(-647.91 -224)">
            <g id="그룹_1135">
                <path id="패스_1295" d="M662.339 232h-6.857a.5.5 0 1 0 0 1h6.857a.5.5 0 1 0 0-1z" class="cls-8"/>
            </g>
            <g id="그룹_1136">
                <path id="패스_1296" d="M662.339 235h-6.857a.5.5 0 1 0 0 1h6.857a.5.5 0 1 0 0-1z" class="cls-8"/>
            </g>
            <g id="그룹_1137">
                <path id="패스_1297" d="M662.339 238h-6.857a.5.5 0 1 0 0 1h6.857a.5.5 0 1 0 0-1z" class="cls-8"/>
            </g>
        </g>
    </g>
</svg>
